TRNG_SOC/aes256_encrypt/edit_aes256_encrypt_v1_0.sim/sim_1/behav/xsim/tb_aes256_enc.vcd
$date
   Fri Mar 27 12:07:19 2026
$end

$version
  2024.2.0
  $dumpfile ("tb_aes256_enc.vcd") 
$end

$timescale
  1ps
$end

$scope module tb_aes256_enc $end
$var reg 1 ! clk $end
$var reg 1 " rst_n $end
$var wire 4 # bram_addr [3:0] $end
$var wire 1 $ bram_en $end
$var reg 32 % bram_dout [31:0] $end
$var reg 1 & start $end
$var reg 128 ' data_in [127:0] $end
$var wire 128 ( data_out [127:0] $end
$var wire 1 ) done $end
$var wire 1 * busy $end
$var integer 32 + fail_cnt [31:0] $end
$scope module u_dut $end
$var wire 1 , clk $end
$var wire 1 - rst_n $end
$var reg 4 . bram_addr [3:0] $end
$var reg 1 / bram_en $end
$var wire 32 0 bram_dout [31:0] $end
$var wire 1 1 start $end
$var wire 128 2 data_in [127:0] $end
$var reg 128 3 data_out [127:0] $end
$var reg 1 4 done $end
$var reg 1 5 busy $end
$var reg 4 6 state [3:0] $end
$var reg 128 7 aes_state [127:0] $end
$var reg 4 8 round_cnt [3:0] $end
$var reg 4 9 round_num [3:0] $end
$var reg 4 : bram_cnt [3:0] $end
$var reg 256 ; aes_key [255:0] $end
$var reg 1 < key_valid_r $end
$var wire 128 = round_key [127:0] $end
$var wire 1 > key_done $end
$var wire 128 ? sub_out [127:0] $end
$var wire 128 @ shift_out [127:0] $end
$var reg 1 A mix_valid_in $end
$var wire 128 B mix_out [127:0] $end
$var wire 1 C mix_valid_out $end
$var wire 128 D ark_out [127:0] $end
$var reg 128 E ark_in_sel [127:0] $end
$scope module u_key_exp $end
$var wire 1 , clk $end
$var wire 1 - rst_n $end
$var wire 256 F key [255:0] $end
$var wire 1 G key_valid $end
$var wire 4 H round_num [3:0] $end
$var reg 128 I round_key [127:0] $end
$var reg 1 J done $end
$var reg 2 K state [1:0] $end
$var reg 6 L idx [5:0] $end
$var wire 32 M sub_word_in [31:0] $end
$var wire 32 N sub_word_out [31:0] $end
$var wire 32 O rot_w [31:0] $end
$var wire 3 P rcon_idx [2:0] $end
$scope module u_sb0 $end
$var wire 8 Q in [31:24] $end
$var wire 8 R out [31:24] $end
$upscope $end
$scope module u_sb1 $end
$var wire 8 S in [23:16] $end
$var wire 8 T out [23:16] $end
$upscope $end
$scope module u_sb2 $end
$var wire 8 U in [15:8] $end
$var wire 8 V out [15:8] $end
$upscope $end
$scope module u_sb3 $end
$var wire 8 W in [7:0] $end
$var wire 8 X out [7:0] $end
$upscope $end
$upscope $end
$scope module u_sub $end
$var wire 128 Y in [127:0] $end
$var wire 128 ? out [127:0] $end
$scope module g_sbox[0].u_sbox $end
$var wire 8 Z in [127:120] $end
$var wire 8 [ out [127:120] $end
$upscope $end
$scope module g_sbox[1].u_sbox $end
$var wire 8 \ in [119:112] $end
$var wire 8 ] out [119:112] $end
$upscope $end
$scope module g_sbox[2].u_sbox $end
$var wire 8 ^ in [111:104] $end
$var wire 8 _ out [111:104] $end
$upscope $end
$scope module g_sbox[3].u_sbox $end
$var wire 8 ` in [103:96] $end
$var wire 8 a out [103:96] $end
$upscope $end
$scope module g_sbox[4].u_sbox $end
$var wire 8 b in [95:88] $end
$var wire 8 c out [95:88] $end
$upscope $end
$scope module g_sbox[5].u_sbox $end
$var wire 8 d in [87:80] $end
$var wire 8 e out [87:80] $end
$upscope $end
$scope module g_sbox[6].u_sbox $end
$var wire 8 f in [79:72] $end
$var wire 8 g out [79:72] $end
$upscope $end
$scope module g_sbox[7].u_sbox $end
$var wire 8 h in [71:64] $end
$var wire 8 i out [71:64] $end
$upscope $end
$scope module g_sbox[8].u_sbox $end
$var wire 8 j in [63:56] $end
$var wire 8 k out [63:56] $end
$upscope $end
$scope module g_sbox[9].u_sbox $end
$var wire 8 l in [55:48] $end
$var wire 8 m out [55:48] $end
$upscope $end
$scope module g_sbox[10].u_sbox $end
$var wire 8 n in [47:40] $end
$var wire 8 o out [47:40] $end
$upscope $end
$scope module g_sbox[11].u_sbox $end
$var wire 8 p in [39:32] $end
$var wire 8 q out [39:32] $end
$upscope $end
$scope module g_sbox[12].u_sbox $end
$var wire 8 r in [31:24] $end
$var wire 8 s out [31:24] $end
$upscope $end
$scope module g_sbox[13].u_sbox $end
$var wire 8 t in [23:16] $end
$var wire 8 u out [23:16] $end
$upscope $end
$scope module g_sbox[14].u_sbox $end
$var wire 8 v in [15:8] $end
$var wire 8 w out [15:8] $end
$upscope $end
$scope module g_sbox[15].u_sbox $end
$var wire 8 x in [7:0] $end
$var wire 8 y out [7:0] $end
$upscope $end
$upscope $end
$scope module u_shift $end
$var wire 128 ? in [127:0] $end
$var wire 128 @ out [127:0] $end
$var wire 8 z b0 [7:0] $end
$var wire 8 { b1 [7:0] $end
$var wire 8 | b2 [7:0] $end
$var wire 8 } b3 [7:0] $end
$var wire 8 ~ b4 [7:0] $end
$var wire 8 !! b5 [7:0] $end
$var wire 8 "! b6 [7:0] $end
$var wire 8 #! b7 [7:0] $end
$var wire 8 $! b8 [7:0] $end
$var wire 8 %! b9 [7:0] $end
$var wire 8 &! b10 [7:0] $end
$var wire 8 '! b11 [7:0] $end
$var wire 8 (! b12 [7:0] $end
$var wire 8 )! b13 [7:0] $end
$var wire 8 *! b14 [7:0] $end
$var wire 8 +! b15 [7:0] $end
$upscope $end
$scope module u_mix $end
$var wire 1 , clk $end
$var wire 1 - rst_n $end
$var wire 128 @ in [127:0] $end
$var wire 1 ,! valid_in $end
$var reg 128 -! out [127:0] $end
$var reg 1 .! valid_out $end
$var wire 128 /! mixed [127:0] $end
$scope function xtime $end
$var reg 8 0! xtime [7:0] $end
$var reg 8 1! a [7:0] $end
$upscope $end
$scope function mix_col $end
$var reg 32 2! mix_col [31:0] $end
$var reg 8 3! s0 [7:0] $end
$var reg 8 4! s1 [7:0] $end
$var reg 8 5! s2 [7:0] $end
$var reg 8 6! s3 [7:0] $end
$var reg 8 7! r0 [7:0] $end
$var reg 8 8! r1 [7:0] $end
$var reg 8 9! r2 [7:0] $end
$var reg 8 :! r3 [7:0] $end
$upscope $end
$upscope $end
$scope module u_ark $end
$var wire 128 ;! state [127:0] $end
$var wire 128 = round_key [127:0] $end
$var wire 128 D out [127:0] $end
$upscope $end
$upscope $end
$upscope $end
$enddefinitions $end

#0
$dumpvars
0!
b1100011 !!
0"
b1100011 "!
b0 #
b1100011 #!
1$
b1100011 $!
bx %
b1100011 %!
0&
b1100011 &!
b0 '
b1100011 '!
b0 (
b1100011 (!
0)
b1100011 )!
0*
b1100011 *!
b0 +
b1100011 +!
0,
0,!
0-
b0 -!
b0 .
0.!
1/
b1100011011000110110001101100011011000110110001101100011011000110110001101100011011000110110001101100011011000110110001101100011 /!
bx 0
b11000110 0!
01
b1100011 1!
b0 2
b1100011011000110110001101100011 2!
b0 3
b1100011 3!
04
b1100011 4!
05
b1100011 5!
b0 6
b1100011 6!
b0 7
b1100011 7!
b0 8
b1100011 8!
b0 9
b1100011 9!
b0 :
b1100011 :!
b0 ;
b0 ;!
0<
bx =
0>
b1100011011000110110001101100011011000110110001101100011011000110110001101100011011000110110001101100011011000110110001101100011 ?
b1100011011000110110001101100011011000110110001101100011011000110110001101100011011000110110001101100011011000110110001101100011 @
0A
b0 B
0C
bx D
b0 E
b0 F
0G
b0 H
bx I
0J
b0 K
b1000 L
bx M
bx N
bx O
b1 P
bx Q
bx R
bx S
bx T
bx U
bx V
bx W
bx X
b0 Y
b0 Z
b1100011 [
b0 \
b1100011 ]
b0 ^
b1100011 _
b0 `
b1100011 a
b0 b
b1100011 c
b0 d
b1100011 e
b0 f
b1100011 g
b0 h
b1100011 i
b0 j
b1100011 k
b0 l
b1100011 m
b0 n
b1100011 o
b0 p
b1100011 q
b0 r
b1100011 s
b0 t
b1100011 u
b0 v
b1100011 w
b0 x
b1100011 y
b1100011 z
b1100011 {
b1100011 |
b1100011 }
b1100011 ~
$end

#5000
1!
b10000001000000011 %
1,
b10000001000000011 0

#10000
0!
0,

#15000
1!
1,

#20000
0!
0,

#25000
1!
1,

#30000
0!
0,

#35000
1!
1,

#40000
0!
0,

#45000
1!
1"
1,
1-
b1100011011000110110001101100011011000110110001101100011011000110110001101100011011000110110001101100011011000110110001101100011 -!
b1 :
b1100011011000110110001101100011011000110110001101100011011000110110001101100011011000110110001101100011011000110110001101100011 B

#50000
0!
0,

#55000
1!
b1 #
1,
b1 .
b10 :
b1000000100000001100000000000000000000000000000000000000000000000000000000000000000000000000000000000000000000000000000000000000000000000000000000000000000000000000000000000000000000000000000000000000000000000000000000000000000000000000000000 ;
b1000000100000001100000000000000000000000000000000000000000000000000000000000000000000000000000000000000000000000000000000000000000000000000000000000000000000000000000000000000000000000000000000000000000000000000000000000000000000000000000000 F

#60000
0!
0,

#65000
1!
b10 #
b100000001010000011000000111 %
1,
b10 .
b100000001010000011000000111 0
b11 :
b1000000100000001100000000000000010000001000000011000000000000000000000000000000000000000000000000000000000000000000000000000000000000000000000000000000000000000000000000000000000000000000000000000000000000000000000000000000000000000000000000 ;
b1000000100000001100000000000000010000001000000011000000000000000000000000000000000000000000000000000000000000000000000000000000000000000000000000000000000000000000000000000000000000000000000000000000000000000000000000000000000000000000000000 F

#70000
0!
0,

#75000
1!
b11 #
b1000000010010000101000001011 %
1,
b11 .
b1000000010010000101000001011 0
b100 :
b1000000100000001100000000000000010000001000000011000001000000010100000110000001110000000000000000000000000000000000000000000000000000000000000000000000000000000000000000000000000000000000000000000000000000000000000000000000000000000000000000 ;
b1000000100000001100000000000000010000001000000011000001000000010100000110000001110000000000000000000000000000000000000000000000000000000000000000000000000000000000000000000000000000000000000000000000000000000000000000000000000000000000000000 F

#80000
0!
0,

#85000
1!
b100 #
b1100000011010000111000001111 %
1,
b100 .
b1100000011010000111000001111 0
b101 :
b1000000100000001100000000000000010000001000000011000001000000010100000110000001110000100000001001000010100000101100000000000000000000000000000000000000000000000000000000000000000000000000000000000000000000000000000000000000000000000000000000 ;
b1000000100000001100000000000000010000001000000011000001000000010100000110000001110000100000001001000010100000101100000000000000000000000000000000000000000000000000000000000000000000000000000000000000000000000000000000000000000000000000000000 F

#90000
0!
0,

#95000
1!
b101 #
b10000000100010001001000010011 %
1,
b101 .
b10000000100010001001000010011 0
b110 :
b1000000100000001100000000000000010000001000000011000001000000010100000110000001110000100000001001000010100000101100001100000011010000111000001111000000000000000000000000000000000000000000000000000000000000000000000000000000000000000000000000 ;
b1000000100000001100000000000000010000001000000011000001000000010100000110000001110000100000001001000010100000101100001100000011010000111000001111000000000000000000000000000000000000000000000000000000000000000000000000000000000000000000000000 F

#100000
0!
0,

#105000
1!
b110 #
b10100000101010001011000010111 %
1,
b110 .
b10100000101010001011000010111 0
b111 :
b1000000100000001100000000000000010000001000000011000001000000010100000110000001110000100000001001000010100000101100001100000011010000111000001111000100000001000100010010000100110000000000000000000000000000000000000000000000000000000000000000 ;
b1000000100000001100000000000000010000001000000011000001000000010100000110000001110000100000001001000010100000101100001100000011010000111000001111000100000001000100010010000100110000000000000000000000000000000000000000000000000000000000000000 F

#110000
0!
0,

#115000
1!
b111 #
b11000000110010001101000011011 %
1,
b111 .
b11000000110010001101000011011 0
b1000 :
b1000000100000001100000000000000010000001000000011000001000000010100000110000001110000100000001001000010100000101100001100000011010000111000001111000100000001000100010010000100110001010000010101000101100001011100000000000000000000000000000000 ;
b1000000100000001100000000000000010000001000000011000001000000010100000110000001110000100000001001000010100000101100001100000011010000111000001111000100000001000100010010000100110001010000010101000101100001011100000000000000000000000000000000 F

#120000
0!
0,

#125000
1!
b1000 #
0$
b11100000111010001111000011111 %
1,
b1000 .
0/
b11100000111010001111000011111 0
b1 6
b1000000100000001100000000000000010000001000000011000001000000010100000110000001110000100000001001000010100000101100001100000011010000111000001111000100000001000100010010000100110001010000010101000101100001011100011000000110010001101000011011 ;
1<
b1000000100000001100000000000000010000001000000011000001000000010100000110000001110000100000001001000010100000101100001100000011010000111000001111000100000001000100010010000100110001010000010101000101100001011100011000000110010001101000011011 F
1G

#130000
0!
0,

#135000
1!
1,
0<
b10000001000000011000000000000000100000010000000110000010000000101000001100000011100001000000010010000101000001011 =
b10000001000000011000000000000000100000010000000110000010000000101000001100000011100001000000010010000101000001011 D
0G
b10000001000000011000000000000000100000010000000110000010000000101000001100000011100001000000010010000101000001011 I
b1 K
b11001000110100001101100011000 M
b11010100101000101010111110101101 N
b11001000110100001101100011000 O
b11001 Q
b11010100 R
b11010 S
b10100010 T
b11011 U
b10101111 V
b11000 W
b10101101 X

#140000
0!
0,

#145000
1!
1,
b1001 L
b11010101101000111010110110101110 M
b11000010101001010111100100 N
b10100011101011011010111011010101 O
b11010101 Q
b11 R
b10100011 S
b1010 T
b10101101 U
b10010101 V
b10101110 W
b11100100 X

#150000
0!
0,

#155000
1!
1,
b1010 L
b11010101101000101010111110101101 M
b11001110100111100110010101 N
b10100010101011111010110111010101 O
b11010101 Q
b10100010 S
b111010 T
b10101111 U
b1111001 V
b10101101 W
b10010101 X

#160000
0!
0,

#165000
1!
1,
b1011 L
b11010001101001111010100110101010 M
b111110010111001101001110101100 N
b10100111101010011010101011010001 O
b11010001 Q
b111110 R
b10100111 S
b1011100 T
b10101001 U
b11010011 V
b10101010 W
b10101100 X

#170000
0!
0,

#175000
1!
1,
b1100 L
b11011001101011101010001110100001 M
b110101111001000000101000110010 N
b10101110101000111010000111011001 O
b11011001 Q
b110101 R
b10101110 S
b11100100 T
b10100011 U
b1010 V
b10100001 W
b110010 X

#180000
0!
0,

#185000
1!
1,
b1101 L
b111001111010010000010000111101 M
b10010000111101111001000100111 N
b11101001000001000011110100111001 O
b111001 Q
b10010 R
b11101001 S
b11110 T
b100 U
b11110010 V
b111101 W
b100111 X

#190000
0!
0,

#195000
1!
1,
b1110 L
b101001111110000001011000101110 M
b10100101010000010100011100110001 N
b11111000000101100010111000101001 O
b101001 Q
b10100101 R
b11111000 S
b1000001 T
b10110 U
b1000111 V
b101110 W
b110001 X

#200000
0!
0,

#205000
1!
1,
b1111 L
b111101111011010000000000111001 M
b100111010101010110001100010010 N
b11101101000000000011100100111101 O
b111101 Q
b100111 R
b11101101 S
b1010101 T
b0 U
b1100011 V
b111001 W
b10010 X

#210000
0!
0,

#215000
1!
1,
b10000 L
b11110100000110100010001000100101 M
b10111111101000101001001100111111 N
b11110100000110100010001000100101 O
b10 P
b11110100 Q
b10111111 R
b11010 S
b10100010 T
b100010 U
b10010011 V
b100101 W
b111111 X

#220000
0!
0,

#225000
1!
1,
b10001 L
b1101000000000010011111010010001 M
b1000101011111001011001010000001 N
b1001111101001000101101000 O
b1101000 Q
b1000101 R
b1 S
b1111100 T
b111110 U
b10110010 V
b10010001 W
b10000001 X

#230000
0!
0,

#235000
1!
1,
b10010 L
b10111101101000111001000100111100 M
b1111010000010101000000111101011 N
b10100011100100010011110010111101 O
b10111101 Q
b1111010 R
b10100011 S
b1010 T
b10010001 U
b10000001 V
b111100 W
b11101011 X

#240000
0!
0,

#245000
1!
1,
b10011 L
b1101100000001000011100010010110 M
b1010000111100100000011110010000 N
b100001110001001011001101100 O
b1101100 Q
b1010000 R
b100 S
b11110010 T
b111000 U
b111 V
b10010110 W
b10010000 X

#250000
0!
0,

#255000
1!
1,
b10100 L
b10110101101010101001101100110111 M
b11010101101011000001010010011010 N
b10101010100110110011011110110101 O
b10110101 Q
b11010101 R
b10101010 S
b10101100 T
b10011011 U
b10100 V
b110111 W
b10011010 X

#260000
0!
0,

#265000
1!
1,
b10101 L
b11101100010001010001000010100111 M
b11001110011011101100101001011100 N
b1000101000100001010011111101100 O
b11101100 Q
b11001110 R
b1000101 S
b1101110 T
b10000 U
b11001010 V
b10100111 W
b1011100 X

#270000
0!
0,

#275000
1!
1,
b10110 L
b11000101101111010000011010001001 M
b10100110011110100110111110100111 N
b10111101000001101000100111000101 O
b11000101 Q
b10100110 R
b10111101 S
b1111010 T
b110 U
b1101111 V
b10001001 W
b10100111 X

#280000
0!
0,

#285000
1!
1,
b10111 L
b11111000010100000000011010110000 M
b1000001010100110110111111100111 N
b1010000000001101011000011111000 O
b11111000 Q
b1000001 R
b1010000 S
b1010011 T
b110 U
b10110000 W
b11100111 X

#290000
0!
0,

#295000
1!
1,
b11000 L
b10100100000111001001001011011101 M
b1001001100111000100111111000001 N
b10100100000111001001001011011101 O
b11 P
b10100100 Q
b1001001 R
b11100 S
b10011100 T
b10010010 U
b1001111 V
b11011101 W
b11000001 X

#300000
0!
0,

#305000
1!
1,
b11001 L
b100101100111010111000101010000 M
b111111010111101010001101010011 N
b10011101011100010101000000100101 O
b100101 Q
b111111 R
b10011101 S
b1011110 T
b1110001 U
b10100011 V
b1010000 W
b1010011 X

#310000
0!
0,

#315000
1!
1,
b11010 L
b10011000001111101110000001101100 M
b1000110101100101110000101010000 N
b111110111000000110110010011000 O
b10011000 Q
b1000110 R
b111110 S
b10110010 T
b11100000 U
b11100001 V
b1101100 W
b1010000 X

#320000
0!
0,

#325000
1!
1,
b11011 L
b11110100001110101101100011111010 M
b10111111100000000110000100101101 N
b111010110110001111101011110100 O
b11110100 Q
b10111111 R
b111010 S
b10000000 T
b11011000 U
b1100001 V
b11111010 W
b101101 X

#330000
0!
0,

#335000
1!
1,
b11100 L
b1000001100100000100001111001101 M
b10000011011000000001101010111101 N
b10010000010000111100110101000001 O
b1000001 Q
b10000011 R
b10010000 S
b1100000 T
b1000011 U
b11010 V
b11001101 W
b10111101 X

#340000
0!
0,

#345000
1!
1,
b11101 L
b1101111001001010000101000011010 M
b10101000001111110110011110100010 N
b100101000010100001101001101111 O
b1101111 Q
b10101000 R
b100101 S
b111111 T
b1010 U
b1100111 V
b11010 W
b10100010 X

#350000
0!
0,

#355000
1!
1,
b11110 L
b10101010100110000000110010010011 M
b10101100010001101111111011011100 N
b10011000000011001001001110101010 O
b10101010 Q
b10101100 R
b10011000 S
b1000110 T
b1100 U
b11111110 V
b10010011 W
b11011100 X

#360000
0!
0,

#365000
1!
1,
b11111 L
b1010010110010000000101000100011 M
b111010000110011100100110 N
b11001000000010100010001101010010 O
b1010010 Q
b0 R
b11001000 S
b11101000 T
b1010 U
b1100111 V
b100011 W
b100110 X

#370000
0!
0,

#375000
1!
1,
b100000 L
b1101100000101101011000110001111 M
b1010000010001111100100001110011 N
b1101100000101101011000110001111 O
b100 P
b1101100 Q
b1010000 R
b10110 S
b1000111 T
b10110001 U
b11001000 V
b10001111 W
b1110011 X

#380000
0!
0,

#385000
1!
1,
b100001 L
b1111101110110101011100100100011 M
b11111111010101110101011000100110 N
b11011010101110010010001101111101 O
b1111101 Q
b11111111 R
b11011010 S
b1010111 T
b10111001 U
b1010110 V
b100011 W
b100110 X

#390000
0!
0,

#395000
1!
1,
b100010 L
b11100101111001000101100101001111 M
b11011001011010011100101110000100 N
b11100100010110010100111111100101 O
b11100101 Q
b11011001 R
b11100100 S
b1101001 T
b1011001 U
b11001011 V
b1001111 W
b10000100 X

#400000
0!
0,

#405000
1!
1,
b100011 L
b10001110111101000000110110101 M
b10000010000111010000110011010101 N
b11011110100000011011010100010001 O
b10001 Q
b10000010 R
b11011110 S
b11101 T
b10000001 U
b1100 V
b10110101 W
b11010101 X

#410000
0!
0,

#415000
1!
1,
b100100 L
b1010000010011101100001001111000 M
b1010011001011110010010110111100 N
b1001110110000100111100001010000 O
b1010000 Q
b1010011 R
b1001110 S
b101111 T
b11000010 U
b100101 V
b1111000 W
b10111100 X

#420000
0!
0,

#425000
1!
1,
b100101 L
b111100000010100010111110100110 M
b11101011011001110001010100100100 N
b1010001011111010011000111100 O
b111100 Q
b11101011 R
b1010 S
b1100111 T
b101111 U
b10101 V
b10100110 W
b100100 X

#430000
0!
0,

#435000
1!
1,
b100110 L
b10010110100100100010001100110101 M
b10010000010011110010011010010110 N
b10010010001000110011010110010110 O
b10010110 Q
b10010000 R
b10010010 S
b1001111 T
b100011 U
b100110 V
b110101 W
b10010110 X

#440000
0!
0,

#445000
1!
1,
b100111 L
b11000100010110100010100100010110 M
b11100101111101010010101000111 N
b1011010001010010001011011000100 O
b11000100 Q
b11100 R
b1011010 S
b10111110 T
b101001 U
b10100101 V
b10110 W
b1000111 X

#450000
0!
0,

#455000
1!
1,
b101000 L
b110110001111111010011101001011 M
b101011101010101110010110011 N
b110110001111111010011101001011 O
b101 P
b110110 Q
b101 R
b111111 S
b1110101 T
b10100111 U
b1011100 V
b1001011 W
b10110011 X

#460000
0!
0,

#465000
1!
1,
b101001 L
b1101000101011111110010110010000 M
b1000101011110011101100101100000 N
b10101111111001011001000001101000 O
b1101000 Q
b1000101 R
b10101111 S
b1111001 T
b11100101 U
b11011001 V
b10010000 W
b1100000 X

#470000
0!
0,

#475000
1!
1,
b101010 L
b10001101010010111011110011011111 M
b1011101101100110110010110011110 N
b1001011101111001101111110001101 O
b10001101 Q
b1011101 R
b1001011 S
b10110011 T
b10111100 U
b1100101 V
b11011111 W
b10011110 X

#480000
0!
0,

#485000
1!
1,
b101011 L
b10011100100101010011110101101010 M
b11011110001010100010011100000010 N
b10010101001111010110101010011100 O
b10011100 Q
b11011110 R
b10010101 S
b101010 T
b111101 U
b100111 V
b1101010 W
b10 X

#490000
0!
0,

#495000
1!
1,
b101100 L
b11001100110110111111111100010010 M
b1001011101110010001011011001001 N
b11011011111111110001001011001100 O
b11001100 Q
b1001011 R
b11011011 S
b10111001 T
b11111111 U
b10110 V
b10010 W
b11001001 X

#500000
0!
0,

#505000
1!
1,
b101101 L
b1110111101100110011100101101111 M
b11110101011011010001001010101000 N
b10110011001110010110111101110111 O
b1110111 Q
b11110101 R
b10110011 S
b1101101 T
b111001 U
b10010 V
b1101111 W
b10101000 X

#510000
0!
0,

#515000
1!
1,
b101110 L
b11100001001000010001101001011010 M
b11111000111111011010001010111110 N
b100001000110100101101011100001 O
b11100001 Q
b11111000 R
b100001 S
b11111101 T
b11010 U
b10100010 V
b1011010 W
b10111110 X

#520000
0!
0,

#525000
1!
1,
b101111 L
b100101011110110011001101001100 M
b111111001000011100001100101001 N
b1111011001100110100110000100101 O
b100101 Q
b111111 R
b1111011 S
b100001 T
b110011 U
b11000011 V
b1001100 W
b101001 X

#530000
0!
0,

#535000
1!
1,
b110000 L
b1001101000011001110101101101110 M
b11100011111111101110100110011111 N
b1001101000011001110101101101110 O
b110 P
b1001101 Q
b11100011 R
b1100 S
b11111110 T
b11101011 U
b11101001 V
b1101110 W
b10011111 X

#540000
0!
0,

#545000
1!
1,
b110001 L
b10101011010100010000110000001111 M
b1100010110100011111111001110110 N
b1010001000011000000111110101011 O
b10101011 Q
b1100010 R
b1010001 S
b11010001 T
b1100 U
b11111110 V
b1111 W
b1110110 X

#550000
0!
0,

#555000
1!
1,
b110010 L
b100110000110101011000011010000 M
b11110111101000101110011101110000 N
b11010101100001101000000100110 O
b100110 Q
b11110111 R
b11010 S
b10100010 T
b10110000 U
b11100111 V
b11010000 W
b1110000 X

#560000
0!
0,

#565000
1!
1,
b110011 L
b10111010100011111000110110111010 M
b11110100011100110101110111110100 N
b10001111100011011011101010111010 O
b10111010 Q
b11110100 R
b10001111 S
b1110011 T
b10001101 U
b1011101 V
b10111010 W
b11110100 X

#570000
0!
0,

#575000
1!
1,
b110100 L
b1110110010101000111001010101000 M
b111000001000000100000011000010 N
b1010100011100101010100001110110 O
b1110110 Q
b111000 R
b1010100 S
b100000 T
b1110010 U
b1000000 V
b10101000 W
b11000010 X

#580000
0!
0,

#585000
1!
1,
b110101 L
b1001111100100110111100110101101 M
b10000100110111001011011010010101 N
b10010011011110011010110101001111 O
b1001111 Q
b10000100 R
b10010011 S
b11011100 T
b1111001 U
b10110110 V
b10101101 W
b10010101 X

#590000
0!
0,

#595000
1!
1,
b110110 L
b10101110101100100110001111110111 M
b11100100001101111111101101101000 N
b10110010011000111111011110101110 O
b10101110 Q
b11100100 R
b10110010 S
b110111 T
b1100011 U
b11111011 V
b11110111 W
b1101000 X

#600000
0!
0,

#605000
1!
1,
b110111 L
b10001011110010010101000010111011 M
b111101110111010101001111101010 N
b11001001010100001011101110001011 O
b10001011 Q
b111101 R
b11001001 S
b11011101 T
b1010000 U
b1010011 V
b10111011 W
b11101010 X

#610000
0!
0,

#615000
1!
1,
b111000 L
b10000100010111000101000011100101 M
b1011111010010100101001111011001 N
b10000100010111000101000011100101 O
b111 P
b10000100 Q
b1011111 R
b1011100 S
b1001010 T
b1010000 U
b1010011 V
b11100101 W
b11011001 X

#620000
0!
0,

#625000
1!
1,
b111001 L
b10110100000110110101111111010110 M
b10001101101011111100111111110110 N
b11011010111111101011010110100 O
b10110100 Q
b10001101 R
b11011 S
b10101111 T
b1011111 U
b11001111 V
b11010110 W
b11110110 X

#630000
0!
0,

#635000
1!
1,
b111010 L
b10010010000000011110111100000110 M
b1001111011111001101111101101111 N
b1111011110000011010010010 O
b10010010 Q
b1001111 R
b1 S
b1111100 T
b11101111 U
b11011111 V
b110 W
b1101111 X

#640000
0!
0,

#645000
1!
1,
b111011 L
b101000100011100110001010111100 M
b110100000110011010101001100101 N
b10001110011000101011110000101000 O
b101000 Q
b110100 R
b10001110 S
b11001 T
b1100010 U
b10101010 V
b10111100 W
b1100101 X

#650000
0!
0,

#655000
1!
1,
b10 K

#660000
0!
0,

#665000
1!
1,
1>
1J
b0 K

#670000
0!
0,

#675000
1!
1,
b10 6
0>
0J

#680000
0!
0,

#685000
1!
b100010010001000110011010001000101010101100110011101111000100010011001101010101011101111001100110111011110111011111111 '
1,
b100010010001000110011010001000101010101100110011101111000100010011001101010101011101111001100110111011110111011111111 2

#690000
0!
0,

#695000
1!
1&
1*
1,
11
15
b11 6
b100010010001000110011010001000101010101100110011101111000100010011001101010101011101111001100110111011110111011111111 ;!
b100000010000000110000010001000101010001100100011101001000110010011100101011001011110011000100110101001110010011110100 D
b100010010001000110011010001000101010101100110011101111000100010011001101010101011101111001100110111011110111011111111 E

#700000
0!
0,

#705000
1!
b100000 !!
b1000011 "!
b10010010 #!
b1100100 $!
b11011110 %!
0&
b10010001 &!
b1100101 '!
b11100 (!
b1001000 )!
b1101001 *!
b10111111 +!
1,
b10001000001101001010000001110001001000100000001100011011100100100011010110100100111101000110110001011011001100111111111101100111 /!
b1100101 0!
01
b10111111 1!
b10001000001101001010000001110001 2!
b1100011 3!
b100000 4!
b10010001 5!
b100 6
b10111111 6!
b100000010000000110000010001000101010001100100011101001000110010011100101011001011110011000100110101001110010011110100 7
b10001000 7!
b1 8
b110100 8!
b1 9
b10100000 9!
b1110001 :!
b0 ;!
b1100000011010000111000001111000100000001000100010010000100110001010000010101000101100001011100011000000110010001101000011011 =
b1100011110010101011011100000100000110110010000001000011100100100110010011011110100100010110010100011100010010000110100110111111 ?
b1100011001000001001000110111111000110111101111001101001000001000110010001001000101101111001001000011100110010100100001101100101 @
b1100000011010000111000001111000100000001000100010010000100110001010000010101000101100001011100011000000110010001101000011011 D
b0 E
b1 H
b1100000011010000111000001111000100000001000100010010000100110001010000010101000101100001011100011000000110010001101000011011 I
b100000010000000110000010001000101010001100100011101001000110010011100101011001011110011000100110101001110010011110100 Y
b0 Z
b10000 \
b11001010 ]
b100000 ^
b10110111 _
b110000 `
b100 a
b1000100 b
b11011 c
b1010100 d
b100000 e
b1100100 f
b1000011 g
b1110100 h
b10010010 i
b10001100 j
b1100100 k
b10011100 l
b11011110 m
b10101100 n
b10010001 o
b10111100 p
b1100101 q
b11000100 r
b11100 s
b11010100 t
b1001000 u
b11100100 v
b1101001 w
b11110100 x
b10111111 y
b11001010 {
b10110111 |
b100 }
b11011 ~

#710000
0!
0,

#715000
1!
1,
1,!
b10001000001101001010000001110001001000100000001100011011100100100011010110100100111101000110110001011011001100111111111101100111 -!
b101 6
b10001000001101001010000001110001001000100000001100011011100100100011010110100100111101000110110001011011001100111111111101100111 ;!
1A
b10001000001101001010000001110001001000100000001100011011100100100011010110100100111101000110110001011011001100111111111101100111 B
b10000100001110011010111001111110001100100001001000001001100000010010000110110001111000100111101101000011001010101110010101111100 D
b10001000001101001010000001110001001000100000001100011011100100100011010110100100111101000110110001011011001100111111111101100111 E

#720000
0!
0,

